0025/test_1.vcd
$date
	Mon Jun 29 10:45:34 2026
$end
$version
	Icarus Verilog
$end
$timescale
	1ps
$end
$scope module tb $end
$scope module DUT $end
$var wire 1 ! clk $end
$var wire 8 " pop_data_o [7:0] $end
$var wire 1 # pop_i $end
$var wire 8 $ push_data_i [7:0] $end
$var wire 1 % push_i $end
$var wire 1 & reset $end
$var wire 1 ' full_o $end
$var wire 1 ( empty_o $end
$var parameter 32 ) DATA_W $end
$var parameter 32 * DEPTH $end
$var reg 3 + cnt [2:0] $end
$var reg 8 , pop_reg [7:0] $end
$var reg 2 - rd_ptr [1:0] $end
$var reg 2 . wr_ptr [1:0] $end
$upscope $end
$upscope $end
$enddefinitions $end
$comment Show the parameter values. $end
$dumpall
b100 *
b1000 )
$end
#0
$dumpvars
b0 .
b0 -
b0 ,
b0 +
1(
0'
1&
0%
b0 $
0#
bx "
0!
$end
#5000
1!
#10000
0!
#15000
1!
#20000
0!
0&
#25000
1!
#30000
0!
#35000
1!
#40000
0!
1%
b10101010 $
#45000
0(
b1 +
b1 .
b10101010 "
1!
#50000
0!
0%
#55000
1!
#60000
0!
1%
b1010101 $
#65000
b10 +
b10 .
1!
#70000
0!
0%
#75000
1!
#80000
0!
1%
b11111111 $
#85000
b11 +
b11 .
1!
#90000
0!
0%
#95000
1!
#100000
0!
1%
b110011 $
#105000
1'
b100 +
b0 .
1!
#110000
0!
0%
#115000
1!
#120000
0!
1%
b10011001 $
#125000
1!
#130000
0!
0%
#135000
1!
#140000
0!
1#
#145000
0'
b11 +
b1010101 "
b1 -
1!
#150000
0!
0#
#155000
1!
#160000
0!
1#
#165000
b10 +
b11111111 "
b10 -
1!
#170000
0!
0#
#175000
1!
#180000
0!
1#
1%
b1110111 $
#185000
b110011 "
b11 -
b1 .
1!
#190000
0!
0#
0%
#195000
1!
#200000
0!
1#
#205000
b1 +
b1110111 "
b0 -
1!
#210000
0!
0#
#215000
1!
#220000
0!
1#
#225000
1(
b0 +
b1010101 "
b1 -
1!
#230000
0!
0#
#235000
1!
#240000
0!
1#
#245000
1!
#250000
0!
0#
