0025/test_3.vcd
$date
	Mon Jun 29 10:45:34 2026
$end
$version
	Icarus Verilog
$end
$timescale
	1ps
$end
$scope module tb $end
$scope module DUT $end
$var wire 1 ! clk $end
$var wire 32 " pop_data_o [31:0] $end
$var wire 1 # pop_i $end
$var wire 32 $ push_data_i [31:0] $end
$var wire 1 % push_i $end
$var wire 1 & reset $end
$var wire 1 ' full_o $end
$var wire 1 ( empty_o $end
$var parameter 32 ) DATA_W $end
$var parameter 32 * DEPTH $end
$var reg 5 + cnt [4:0] $end
$var reg 32 , pop_reg [31:0] $end
$var reg 4 - rd_ptr [3:0] $end
$var reg 4 . wr_ptr [3:0] $end
$upscope $end
$upscope $end
$enddefinitions $end
$comment Show the parameter values. $end
$dumpall
b10000 *
b100000 )
$end
#0
$dumpvars
b0 .
b0 -
b0 ,
b0 +
1(
0'
1&
0%
b0 $
0#
bx "
0!
$end
#5000
1!
#10000
0!
#15000
1!
#20000
0!
0&
#25000
1!
#30000
0!
#35000
1!
#40000
0!
1%
b11011110101011011011111011101111 $
#45000
0(
b1 +
b1 .
b11011110101011011011111011101111 "
1!
#50000
0!
0%
#55000
1!
#60000
0!
1%
b11001010111111101011101010111110 $
#65000
b10 +
b10 .
1!
#70000
0!
0%
#75000
1!
#80000
0!
1%
b10010001101000101011001111000 $
#85000
b11 +
b11 .
1!
#90000
0!
0%
#95000
1!
#100000
0!
1%
b110011 $
#105000
b100 +
b100 .
1!
#110000
0!
0%
#115000
1!
#120000
0!
1%
b10011001 $
#125000
b101 +
b101 .
1!
#130000
0!
0%
#135000
1!
#140000
0!
1#
#145000
b100 +
b11001010111111101011101010111110 "
b1 -
1!
#150000
0!
0#
#155000
1!
#160000
0!
1#
#165000
b11 +
b10010001101000101011001111000 "
b10 -
1!
#170000
0!
0#
#175000
1!
#180000
0!
1#
1%
b1110111 $
#185000
b110011 "
b11 -
b110 .
1!
#190000
0!
0#
0%
#195000
1!
#200000
0!
1#
#205000
b10 +
b10011001 "
b100 -
1!
#210000
0!
0#
#215000
1!
#220000
0!
1#
#225000
b1 +
b1110111 "
b101 -
1!
#230000
0!
0#
#235000
1!
#240000
0!
1#
#245000
1(
b0 +
bx "
b110 -
1!
#250000
0!
0#
