0006/test_2.vcd
$date
	Tue Jun 16 11:56:54 2026
$end
$version
	Icarus Verilog
$end
$timescale
	1ps
$end
$scope module tb $end
$scope module DUT $end
$var wire 1 ! clk $end
$var wire 4 " data_in [3:0] $end
$var wire 4 # data_out [3:0] $end
$var wire 1 $ rst_n $end
$var parameter 32 % DATA_WIDTH $end
$var reg 4 & data_reg [3:0] $end
$upscope $end
$upscope $end
$enddefinitions $end
$comment Show the parameter values. $end
$dumpall
b100 %
$end
#0
$dumpvars
b0 &
0$
b0 #
b0 "
0!
$end
#10000
1!
#20000
0!
#25000
b1010 "
1$
#30000
b1010 #
b1010 &
1!
#31000
b101 "
#40000
b101 #
b101 &
0!
#50000
1!
#51000
b1010 "
#60000
b1010 #
b1010 &
0!
#61000
b1111 "
#70000
b1111 #
b1111 &
1!
#71000
b0 "
#80000
b0 #
b0 &
0!
#90000
1!
#91000
b1111 "
#100000
b1111 #
b1111 &
0!
#101000
b1100 "
#110000
b1100 #
b1100 &
1!
#111000
b11 "
#120000
b11 #
b11 &
0!
