0032/test_3.vcd
$date
	Thu Jul  2 07:04:07 2026
$end
$version
	Icarus Verilog
$end
$timescale
	1ps
$end
$scope module tb $end
$scope module DUT $end
$var wire 1 ! clk_in $end
$var wire 1 " clk_out $end
$var wire 1 # enable $end
$var wire 1 $ reset $end
$var wire 1 % out1 $end
$var parameter 32 & CNT_WIDTH $end
$var parameter 32 ' DIVIDE_FACTOR $end
$var reg 3 ( counter [2:0] $end
$var reg 1 ) out2 $end
$upscope $end
$upscope $end
$enddefinitions $end
$comment Show the parameter values. $end
$dumpall
b110 '
b11 &
$end
#0
$dumpvars
x)
bx (
x%
1$
0#
x"
0!
$end
#5000
0%
b0 (
1!
#10000
0"
0)
0!
#15000
1#
0$
1!
#20000
0!
#25000
b1 (
1!
#30000
0!
#35000
b10 (
1!
#40000
0!
#45000
b11 (
1!
#50000
0!
#55000
1"
1%
b100 (
1!
#60000
1)
0!
#65000
b101 (
1!
#70000
0!
#75000
0%
b0 (
1!
#80000
0"
0)
0!
#85000
b1 (
1!
#90000
0!
#95000
b10 (
1!
#100000
0!
#105000
b11 (
1!
#110000
0!
#115000
1"
1%
b100 (
1!
#120000
1)
0!
#125000
b101 (
1!
#130000
0!
#135000
0%
b0 (
1!
#140000
0"
0)
0!
#145000
b1 (
1!
#150000
0!
#155000
b10 (
1!
#160000
0!
#165000
b11 (
1!
#170000
0!
#175000
1"
1%
b100 (
1!
#180000
1)
0!
#185000
b101 (
1!
#190000
0!
#195000
0%
b0 (
1!
#200000
0"
0)
0!
#205000
b1 (
1!
#210000
0!
#215000
b10 (
1!
#220000
0!
#225000
b11 (
1!
#230000
0!
#235000
1"
1%
b100 (
1!
#240000
1)
0!
#245000
b101 (
1!
#250000
0!
#255000
0%
b0 (
1!
