0004/test_3.vcd
$date
	Tue Jun 16 11:30:39 2026
$end
$version
	Icarus Verilog
$end
$timescale
	1ps
$end
$scope module tb $end
$scope module DUT $end
$var wire 1 ! clk $end
$var wire 5 " count_out [4:0] $end
$var wire 1 # rst_n $end
$var parameter 32 $ COUNTER_WIDTH $end
$var reg 5 % count [4:0] $end
$upscope $end
$upscope $end
$enddefinitions $end
$comment Show the parameter values. $end
$dumpall
b101 $
$end
#0
$dumpvars
bx %
0#
bx "
0!
$end
#10000
b0 "
b0 %
1!
#20000
0!
#25000
1#
#30000
b1 "
b1 %
1!
#40000
0!
#50000
b10 "
b10 %
1!
#60000
0!
#70000
b11 "
b11 %
1!
#80000
0!
#90000
b100 "
b100 %
1!
#100000
0!
#110000
b101 "
b101 %
1!
#120000
0!
#130000
b110 "
b110 %
1!
#140000
0!
#150000
b111 "
b111 %
1!
#160000
0!
#170000
b1000 "
b1000 %
1!
#180000
0!
#190000
b1001 "
b1001 %
1!
#200000
0!
#210000
b1010 "
b1010 %
1!
#220000
0!
#230000
b1011 "
b1011 %
1!
#240000
0!
#250000
b1100 "
b1100 %
1!
#260000
0!
#270000
b1101 "
b1101 %
1!
#280000
0!
#290000
b1110 "
b1110 %
1!
#300000
0!
#310000
b1111 "
b1111 %
1!
#320000
0!
#330000
b10000 "
b10000 %
1!
#340000
0!
#350000
b10001 "
b10001 %
1!
#360000
0!
#370000
b10010 "
b10010 %
1!
#380000
0!
#390000
b10011 "
b10011 %
1!
#400000
0!
#410000
b10100 "
b10100 %
1!
#420000
0!
#430000
b10101 "
b10101 %
1!
#440000
0!
#450000
b10110 "
b10110 %
1!
#460000
0!
#470000
b10111 "
b10111 %
1!
#480000
0!
#490000
b11000 "
b11000 %
1!
#500000
0!
#510000
b11001 "
b11001 %
1!
#520000
0!
#530000
b11010 "
b11010 %
1!
#540000
0!
#550000
b11011 "
b11011 %
1!
#560000
0!
#570000
b11100 "
b11100 %
1!
#580000
0!
#590000
b11101 "
b11101 %
1!
#600000
0!
#610000
b11110 "
b11110 %
1!
#620000
0!
#630000
b11111 "
b11111 %
1!
#640000
0!
#650000
b0 "
b0 %
1!
#660000
0!
#670000
b1 "
b1 %
1!
#680000
0!
#690000
b10 "
b10 %
1!
#700000
0!
#710000
b11 "
b11 %
1!
#720000
0!
#730000
b100 "
b100 %
1!
#740000
0!
#750000
b101 "
b101 %
1!
#760000
0!
#770000
b110 "
b110 %
1!
#780000
0!
#790000
b111 "
b111 %
1!
#800000
0!
#810000
b1000 "
b1000 %
1!
#820000
0!
#830000
b1001 "
b1001 %
1!
#840000
0!
#850000
b1010 "
b1010 %
1!
#860000
0!
#870000
b1011 "
b1011 %
1!
#880000
0!
#890000
b1100 "
b1100 %
1!
#900000
0!
#910000
b1101 "
b1101 %
1!
#920000
0!
#930000
b1110 "
b1110 %
1!
#940000
0!
#950000
b1111 "
b1111 %
1!
#960000
0!
#970000
b10000 "
b10000 %
1!
#980000
0!
#990000
b10001 "
b10001 %
1!
#1000000
0!
#1010000
b10010 "
b10010 %
1!
#1020000
0!
#1030000
b10011 "
b10011 %
1!
#1040000
0!
#1050000
b10100 "
b10100 %
1!
#1060000
0!
#1070000
b10101 "
b10101 %
1!
#1080000
0!
#1090000
b10110 "
b10110 %
1!
#1100000
0!
#1110000
b10111 "
b10111 %
1!
#1120000
0!
#1130000
b11000 "
b11000 %
1!
#1140000
0!
#1150000
b11001 "
b11001 %
1!
#1160000
0!
#1170000
b11010 "
b11010 %
1!
#1180000
0!
#1190000
b11011 "
b11011 %
1!
#1200000
0!
#1210000
b11100 "
b11100 %
1!
#1220000
0!
#1230000
b11101 "
b11101 %
1!
#1240000
0!
#1250000
b11110 "
b11110 %
1!
#1260000
0!
#1270000
b11111 "
b11111 %
1!
#1280000
0!
#1290000
b0 "
b0 %
1!
