0012/test_1.vcd
$date
	Fri Jun 19 11:49:30 2026
$end
$version
	Icarus Verilog
$end
$timescale
	1ps
$end
$scope module tb $end
$scope module DUT $end
$var wire 1 ! clk $end
$var wire 1 " reset $end
$var wire 4 # sr_o [3:0] $end
$var wire 1 $ x_i $end
$var reg 4 % sipo [3:0] $end
$upscope $end
$upscope $end
$enddefinitions $end
$comment Show the parameter values. $end
$dumpall
$end
#0
$dumpvars
b0 %
0$
b0 #
1"
0!
$end
#5000
1!
#10000
0!
#15000
1!
#20000
0!
#25000
b1 #
b1 %
1$
0"
1!
#30000
0!
#35000
b11 #
b11 %
1!
#40000
0!
#45000
b111 #
b111 %
1!
#46000
0$
#50000
0!
#55000
b1110 #
b1110 %
1!
#56000
1$
#60000
0!
#65000
b1101 #
b1101 %
1!
#66000
0$
#70000
0!
#75000
b1010 #
b1010 %
1!
#80000
0!
#85000
b100 #
b100 %
1!
#90000
0!
#95000
b1000 #
b1000 %
1!
#100000
0!
#105000
b0 #
b0 %
1!
#106000
1$
#110000
0!
#115000
b1 #
b1 %
1!
#120000
0!
#125000
b11 #
b11 %
1!
#130000
0!
#135000
b111 #
b111 %
1!
#140000
0!
#145000
b1111 #
b1111 %
1!
#150000
0!
#155000
1!
#156000
0$
#160000
0!
#165000
b1110 #
b1110 %
1!
#166000
1$
#170000
0!
#175000
b1101 #
b1101 %
1!
#176000
0$
#180000
0!
#185000
b1010 #
b1010 %
1!
#186000
1$
#190000
0!
#195000
b0 #
b0 %
1"
1!
#200000
0!
#205000
0$
0"
1!
#210000
0!
#215000
1!
#216000
1$
#220000
0!
#225000
b1 #
b1 %
1!
#230000
0!
#235000
b11 #
b11 %
1!
#236000
0$
#240000
0!
#245000
b110 #
b110 %
1!
