0003/test_1.vcd
$date
	Tue Jun 16 10:21:22 2026
$end
$version
	Icarus Verilog
$end
$timescale
	1ps
$end
$scope module tb $end
$scope module DUT $end
$var wire 1 ! clk $end
$var wire 4 " count_out [3:0] $end
$var wire 1 # rst_n $end
$var parameter 32 $ COUNTER_WIDTH $end
$var reg 4 % count [3:0] $end
$upscope $end
$upscope $end
$enddefinitions $end
$comment Show the parameter values. $end
$dumpall
b100 $
$end
#0
$dumpvars
bx %
0#
bx "
0!
$end
#10000
b1 "
b1 %
1!
#20000
0!
#25000
1#
#30000
b10 "
b10 %
1!
#40000
0!
#50000
b100 "
b100 %
1!
#60000
0!
#70000
b1000 "
b1000 %
1!
#80000
0!
#90000
b1 "
b1 %
1!
#100000
0!
#110000
b10 "
b10 %
1!
#120000
0!
#130000
b100 "
b100 %
1!
#140000
0!
#150000
b1000 "
b1000 %
1!
#160000
0!
#170000
b1 "
b1 %
1!
#180000
0!
#190000
b10 "
b10 %
1!
#200000
0!
#210000
b100 "
b100 %
1!
#220000
0!
#230000
b1000 "
b1000 %
1!
#240000
0!
#250000
b1 "
b1 %
1!
#260000
0!
#270000
b10 "
b10 %
1!
#280000
0!
#290000
b100 "
b100 %
1!
#300000
0!
#310000
b1000 "
b1000 %
1!
#320000
0!
#330000
b1 "
b1 %
1!
#340000
0!
#350000
b10 "
b10 %
1!
#360000
0!
#370000
b100 "
b100 %
1!
#380000
0!
#390000
b1000 "
b1000 %
1!
#400000
0!
#410000
b1 "
b1 %
1!
#420000
0!
#430000
b10 "
b10 %
1!
#440000
0!
#450000
b100 "
b100 %
1!
#460000
0!
#470000
b1000 "
b1000 %
1!
#480000
0!
#490000
b1 "
b1 %
1!
#500000
0!
#510000
b10 "
b10 %
1!
#520000
0!
#530000
b100 "
b100 %
1!
#540000
0!
#550000
b1000 "
b1000 %
1!
#560000
0!
#570000
b1 "
b1 %
1!
#580000
0!
#590000
b10 "
b10 %
1!
#600000
0!
#610000
b100 "
b100 %
1!
#620000
0!
#630000
b1000 "
b1000 %
1!
#640000
0!
#650000
b1 "
b1 %
1!
