0030/test_1.vcd
$date
	Tue Jun 30 11:14:07 2026
$end
$version
	Icarus Verilog
$end
$timescale
	1ps
$end
$scope module tb $end
$scope module DUT $end
$var wire 1 ! clk $end
$var wire 8 " data_in [7:0] $end
$var wire 8 # data_out [7:0] $end
$var wire 1 $ pop $end
$var wire 1 % push $end
$var wire 1 & reset $end
$var reg 1 ' empty $end
$var reg 1 ( full $end
$var reg 8 ) out [7:0] $end
$var reg 3 * stk_ptr [2:0] $end
$scope begin $ivl_for_loop0 $end
$var integer 32 + i [31:0] $end
$upscope $end
$upscope $end
$upscope $end
$enddefinitions $end
$comment Show the parameter values. $end
$dumpall
$end
#0
$dumpvars
b11 +
b0 *
b0 )
0(
1'
1&
0%
0$
b0 #
b0 "
0!
$end
#5000
b11 +
1!
#10000
0!
#15000
b11 +
1!
#20000
0!
b10101010 "
1%
0&
#25000
0'
b1 *
1!
#30000
0!
b10111011 "
#35000
b10 *
1!
#40000
0!
b11001100 "
#45000
b11 *
1!
#50000
0!
b11011101 "
#55000
1(
b100 *
1!
#60000
0!
b11101110 "
#65000
1!
#70000
0!
0%
#75000
1!
#80000
0!
1$
#85000
0(
b11 *
b11011101 #
b11011101 )
1!
#90000
0!
#95000
b10 *
b11001100 #
b11001100 )
1!
#100000
0!
#105000
b1 *
b10111011 #
b10111011 )
1!
#110000
0!
#115000
1'
b0 *
b10101010 #
b10101010 )
1!
#120000
0!
#125000
b0 #
b0 )
1!
#130000
0!
0$
