0049/test_2.vcd
$date
	Fri Jun 19 12:28:16 2026
$end
$version
	Icarus Verilog
$end
$timescale
	1ps
$end
$scope module tb $end
$scope module DUT $end
$var wire 1 ! clk $end
$var wire 6 " data_in [5:0] $end
$var wire 1 # reset $end
$var wire 6 $ data_out [5:0] $end
$var parameter 32 % DATA_WIDTH $end
$var parameter 32 & a1 $end
$var parameter 32 ' b0 $end
$var parameter 32 ( b1 $end
$var parameter 32 ) b2 $end
$var reg 6 * data_in_prev1 [5:0] $end
$var reg 6 + data_in_prev2 [5:0] $end
$var reg 6 , data_in_reg [5:0] $end
$var reg 6 - data_out_prev [5:0] $end
$var reg 12 . data_out_reg [11:0] $end
$upscope $end
$upscope $end
$enddefinitions $end
$comment Show the parameter values. $end
$dumpall
b1 )
b10 (
b1 '
b1 &
b110 %
$end
#0
$dumpvars
b0 .
b0 -
b0 ,
b0 +
b0 *
b0 $
1#
b0 "
0!
$end
#10000
1!
#20000
0!
#30000
0#
1!
#40000
0!
#50000
1!
#52000
b1000 "
#60000
0!
#70000
b1 $
b1 .
b1000 *
1!
#72000
b10000 "
#80000
0!
#90000
b100 $
b100 .
b1 -
b1000 +
b10000 *
1!
#92000
b11000 "
#100000
0!
#110000
b111 $
b111 .
b100 -
b10000 +
b11000 *
1!
#112000
b10000 "
#120000
0!
#130000
b1001 $
b1001 .
b111 -
b11000 +
b10000 *
1!
#132000
b0 "
#140000
0!
#150000
b110 $
b110 .
b1001 -
b10000 +
b0 *
1!
#152000
b111000 "
#160000
0!
#170000
b111111 $
b111111111111 .
b110 -
b0 +
b111000 *
1!
#180000
0!
#190000
b111100 $
b111111111100 .
b111111 -
b111000 +
1!
