0028/test_1.vcd
$date
	Tue Jun 30 10:20:34 2026
$end
$version
	Icarus Verilog
$end
$timescale
	1ps
$end
$scope module tb $end
$scope module DUT $end
$var wire 1 ! clock $end
$var wire 8 " parallel_out [7:0] $end
$var wire 1 # reset $end
$var wire 1 $ serial_in $end
$var reg 8 % sipo_mem [7:0] $end
$upscope $end
$upscope $end
$enddefinitions $end
$comment Show the parameter values. $end
$dumpall
$end
#0
$dumpvars
bx %
0$
1#
bx "
0!
$end
#5000
b0 "
b0 %
1!
#10000
0!
#15000
1!
#20000
0!
1$
0#
#25000
b1 "
b1 %
1!
#30000
0!
0$
#35000
b10 "
b10 %
1!
#40000
0!
1$
#45000
b101 "
b101 %
1!
#50000
0!
0$
#55000
b1010 "
b1010 %
1!
#60000
0!
1$
#65000
b10101 "
b10101 %
1!
#70000
0!
#75000
b101011 "
b101011 %
1!
#80000
0!
0$
#85000
b1010110 "
b1010110 %
1!
#90000
0!
1$
#95000
b10101101 "
b10101101 %
1!
