0011/test_1.vcd
$date
	Fri Jun 19 11:46:57 2026
$end
$version
	Icarus Verilog
$end
$timescale
	1ps
$end
$scope module tb $end
$scope module DUT $end
$var wire 1 ! clk $end
$var wire 1 " reset $end
$var reg 8 # cnt_o [7:0] $end
$upscope $end
$upscope $end
$enddefinitions $end
$comment Show the parameter values. $end
$dumpall
$end
#0
$dumpvars
b1 #
1"
0!
$end
#5000
1!
#10000
0!
#15000
1!
#20000
0!
#25000
b11 #
0"
1!
#30000
0!
#35000
b101 #
1!
#40000
0!
#45000
b111 #
1!
#50000
0!
#55000
b1001 #
1!
#60000
0!
#65000
b1011 #
1!
#70000
0!
#75000
b1101 #
1!
#80000
0!
#85000
b1111 #
1!
#90000
0!
#95000
b10001 #
1!
#100000
0!
#105000
b10011 #
1!
#110000
0!
#115000
b10101 #
1!
#120000
0!
#125000
b10111 #
1!
#130000
0!
#135000
b11001 #
1!
#140000
0!
#145000
b11011 #
1!
#150000
0!
#155000
b11101 #
1!
#160000
0!
#165000
b11111 #
1!
#170000
0!
#175000
b100001 #
1!
#180000
0!
#185000
b100011 #
1!
#190000
0!
#195000
b100101 #
1!
#200000
0!
#205000
b100111 #
1!
#210000
0!
#215000
b101001 #
1!
#220000
0!
#225000
b1 #
1"
1!
#230000
0!
#235000
1!
#240000
0!
#245000
b11 #
0"
1!
#250000
0!
#255000
b101 #
1!
#260000
0!
#265000
b111 #
1!
#270000
0!
#275000
b1001 #
1!
#280000
0!
#285000
b1011 #
1!
#290000
0!
#295000
b1101 #
1!
#300000
0!
#305000
b1111 #
1!
#310000
0!
#315000
b10001 #
1!
#320000
0!
#325000
b10011 #
1!
#330000
0!
#335000
b10101 #
1!
#340000
0!
#345000
b10111 #
1!
