0027/test_1.vcd
$date
	Mon Jun 29 11:12:06 2026
$end
$version
	Icarus Verilog
$end
$timescale
	1ps
$end
$scope module tb $end
$scope module DUT $end
$var wire 1 ! clk $end
$var wire 1 " rst $end
$var wire 1 # up_down $end
$var reg 4 $ count [3:0] $end
$upscope $end
$upscope $end
$enddefinitions $end
$comment Show the parameter values. $end
$dumpall
$end
#0
$dumpvars
bx $
1#
1"
0!
$end
#5000
b0 $
1!
#10000
0!
#15000
1!
#20000
0!
0"
#25000
b1 $
1!
#30000
0!
#35000
b10 $
1!
#40000
0!
#45000
b11 $
1!
#50000
0!
0#
#55000
b10 $
1!
#60000
0!
#65000
b1 $
1!
#70000
0!
#75000
b0 $
1!
#80000
0!
1#
#85000
b1 $
1!
#90000
0!
#95000
b10 $
1!
#100000
0!
#105000
b11 $
1!
