0021/test_1.vcd
$date
	Wed Jun 24 12:29:43 2026
$end
$version
	Icarus Verilog
$end
$timescale
	1ps
$end
$scope module tb $end
$scope module DUT $end
$var wire 1 ! clk $end
$var wire 4 " req_i [3:0] $end
$var wire 1 # reset $end
$var reg 4 $ gnt_o [3:0] $end
$var reg 4 % gnt_tmp [3:0] $end
$var reg 2 & last_gnt [1:0] $end
$upscope $end
$upscope $end
$enddefinitions $end
$comment Show the parameter values. $end
$dumpall
$end
#0
$dumpvars
bx &
bx %
bx $
1#
b0 "
0!
$end
#5000
b0 %
b0 $
b11 &
1!
#10000
0!
#15000
1!
#20000
0!
0#
#25000
1!
#30000
b1 %
0!
b1 "
#35000
b1 $
b0 &
1!
#40000
0!
#45000
1!
#50000
b10 %
0!
b10 "
#55000
b10 $
b1 &
1!
#60000
0!
#65000
1!
#70000
b100 %
0!
b1111 "
#75000
b100 $
b1000 %
b10 &
1!
#80000
0!
#85000
b1000 $
b1 %
b11 &
1!
#90000
0!
b11 "
#95000
b1 $
b10 %
b0 &
1!
#100000
0!
#105000
b10 $
b1 %
b1 &
1!
#110000
b1000 %
0!
b1000 "
#115000
b1000 $
b11 &
1!
#120000
0!
#125000
1!
#130000
b10 %
0!
b110 "
#135000
b10 $
b100 %
b1 &
1!
#140000
0!
#145000
b100 $
b10 %
b10 &
1!
#150000
b0 %
0!
b0 "
#155000
b0 $
1!
#160000
0!
#165000
1!
#170000
b1000 %
0!
b1100 "
#175000
b1000 $
b100 %
b11 &
1!
#180000
0!
#185000
b100 $
b1000 %
b10 &
1!
