0008/test_1.vcd
$date
	Tue Jun 16 12:13:28 2026
$end
$version
	Icarus Verilog
$end
$timescale
	1ps
$end
$scope module tb $end
$scope module DUT $end
$var wire 1 ! clk $end
$var wire 1 " d_i $end
$var wire 1 # reset $end
$var reg 1 $ q_asyncrst_o $end
$var reg 1 % q_norst_o $end
$var reg 1 & q_syncrst_o $end
$upscope $end
$upscope $end
$enddefinitions $end
$comment Show the parameter values. $end
$dumpall
$end
#0
$dumpvars
x&
x%
0$
1#
0"
0!
$end
#5000
0&
0%
1!
#10000
0!
#15000
1!
#20000
0!
#25000
0#
1!
#30000
0!
#35000
1!
#36000
1"
#40000
0!
#45000
1&
1%
1$
1!
#46000
0"
#50000
0!
#55000
0%
0&
0$
1!
#56000
1"
#60000
0!
#65000
1&
1%
1$
1!
#66000
0$
1#
#70000
0!
#75000
0&
1!
#76000
0#
#80000
0!
#85000
1&
1$
1!
#86000
0"
#90000
0!
#95000
0%
0&
0$
1!
#100000
0!
#105000
1!
#106000
1"
#110000
0!
#115000
1%
1&
1$
1!
#120000
0!
#125000
1!
#130000
0!
#135000
1!
#140000
0!
#145000
1!
#150000
0!
#155000
1!
#160000
0!
#165000
1!
#166000
0"
#170000
0!
#175000
0%
0&
0$
1!
#176000
1"
#180000
0!
#185000
1&
1%
1$
1!
