0017/test_1.vcd
$date
	Fri Jun 19 13:03:56 2026
$end
$version
	Icarus Verilog
$end
$timescale
	1ps
$end
$scope module tb $end
$scope module DUT $end
$var wire 1 ! clk $end
$var wire 4 " parallel_i [3:0] $end
$var wire 1 # reset $end
$var wire 1 $ valid_o $end
$var wire 1 % serial_o $end
$var wire 1 & empty_o $end
$var reg 1 ' busy $end
$var reg 3 ( cnt [2:0] $end
$var reg 4 ) piso [3:0] $end
$upscope $end
$upscope $end
$enddefinitions $end
$comment Show the parameter values. $end
$dumpall
$end
#0
$dumpvars
b0 )
b0 (
0'
1&
0%
0$
1#
b0 "
0!
$end
#5000
1!
#10000
0!
#15000
1!
#20000
0!
0#
#25000
0&
1$
1'
1!
#30000
0!
b1010 "
#35000
b1 (
1!
#40000
0!
#45000
b10 (
1!
#50000
0!
#55000
b11 (
1!
#60000
0!
#65000
1&
0$
0'
b100 (
1!
#70000
0!
#75000
0&
1$
1'
b0 (
b1010 )
1!
#80000
0!
#85000
b1 (
1%
b101 )
1!
#90000
0!
b101 "
#95000
b10 (
0%
b10 )
1!
#100000
0!
#105000
b11 (
1%
b1 )
1!
#110000
0!
#115000
1&
0$
0'
b100 (
0%
b0 )
1!
#120000
0!
#125000
1%
0&
1$
1'
b0 (
b101 )
1!
#130000
0!
#135000
b1 (
0%
b10 )
1!
#140000
0!
#145000
b10 (
1%
b1 )
1!
#150000
0!
b1111 "
#155000
b11 (
0%
b0 )
1!
#160000
0!
#165000
1&
0$
0'
b100 (
1!
#170000
0!
#175000
1%
0&
1$
1'
b0 (
b1111 )
1!
#180000
0!
#185000
b1 (
b111 )
1!
#190000
0!
#195000
b10 (
b11 )
1!
#200000
0!
#205000
b11 (
b1 )
1!
