0031/test_1.vcd
$date
	Thu Jul  2 06:31:13 2026
$end
$version
	Icarus Verilog
$end
$timescale
	1ps
$end
$scope module tb $end
$scope module DUT $end
$var wire 1 ! clk $end
$var wire 4 " count_out [3:0] $end
$var wire 1 # enable $end
$var wire 1 $ reset $end
$var parameter 32 % WIDTH $end
$var reg 4 & count [3:0] $end
$upscope $end
$upscope $end
$enddefinitions $end
$comment Show the parameter values. $end
$dumpall
b100 %
$end
#0
$dumpvars
bx &
1$
0#
bx "
0!
$end
#5000
b0 "
b0 &
1!
#10000
0!
#15000
1#
0$
1!
#20000
0!
#25000
b1 "
b1 &
1!
#30000
0!
#35000
b11 "
b11 &
1!
#40000
0!
#45000
b111 "
b111 &
1!
#50000
0!
#55000
b1111 "
b1111 &
1!
#60000
0!
#65000
b1110 "
b1110 &
1!
#70000
0!
#75000
b1100 "
b1100 &
1!
#80000
0!
#85000
b1000 "
b1000 &
1!
#90000
0!
#95000
b0 "
b0 &
1!
#100000
0!
#105000
b1 "
b1 &
1!
#110000
0!
#115000
b11 "
b11 &
1!
